<?xml version="1.0" encoding="utf-8"?>
<!-- Generator: Adobe Illustrator 19.1.0, SVG Export Plug-In . SVG Version: 6.00 Build 0)  -->
<svg version="1.0" xmlns="http://www.w3.org/2000/svg" xmlns:xlink="http://www.w3.org/1999/xlink" x="0px" y="0px"
	 viewBox="0 0 125 40" enable-background="new 0 0 125 40" xml:space="preserve">
<metadata><?xpacket begin="﻿" id="W5M0MpCehiHzreSzNTczkc9d"?>
<x:xmpmeta xmlns:x="adobe:ns:meta/" x:xmptk="Adobe XMP Core 5.6-c067 79.157747, 2015/03/30-23:40:42        ">
   <rdf:RDF xmlns:rdf="http://www.w3.org/1999/02/22-rdf-syntax-ns#">
      <rdf:Description rdf:about=""
            xmlns:dc="http://purl.org/dc/elements/1.1/"
            xmlns:xmp="http://ns.adobe.com/xap/1.0/"
            xmlns:xmpGImg="http://ns.adobe.com/xap/1.0/g/img/"
            xmlns:xmpMM="http://ns.adobe.com/xap/1.0/mm/"
            xmlns:stRef="http://ns.adobe.com/xap/1.0/sType/ResourceRef#"
            xmlns:stEvt="http://ns.adobe.com/xap/1.0/sType/ResourceEvent#"
            xmlns:illustrator="http://ns.adobe.com/illustrator/1.0/"
            xmlns:xmpTPg="http://ns.adobe.com/xap/1.0/t/pg/"
            xmlns:stDim="http://ns.adobe.com/xap/1.0/sType/Dimensions#"
            xmlns:xmpG="http://ns.adobe.com/xap/1.0/g/"
            xmlns:pdf="http://ns.adobe.com/pdf/1.3/">
         <dc:format>image/svg+xml</dc:format>
         <dc:title>
            <rdf:Alt>
               <rdf:li xml:lang="x-default">Web</rdf:li>
            </rdf:Alt>
         </dc:title>
         <xmp:CreatorTool>Adobe Illustrator CC 2015 (Macintosh)</xmp:CreatorTool>
         <xmp:CreateDate>2015-11-02T15:23:06+01:00</xmp:CreateDate>
         <xmp:ModifyDate>2015-11-02T15:23:06+01:00</xmp:ModifyDate>
         <xmp:MetadataDate>2015-11-02T15:23:06+01:00</xmp:MetadataDate>
         <xmp:Thumbnails>
            <rdf:Alt>
               <rdf:li rdf:parseType="Resource">
                  <xmpGImg:width>256</xmpGImg:width>
                  <xmpGImg:height>84</xmpGImg:height>
                  <xmpGImg:format>JPEG</xmpGImg:format>
                  <xmpGImg:image>/9j/4AAQSkZJRgABAgEASABIAAD/7QAsUGhvdG9zaG9wIDMuMAA4QklNA+0AAAAAABAASAAAAAEA&#xA;AQBIAAAAAQAB/+4ADkFkb2JlAGTAAAAAAf/bAIQABgQEBAUEBgUFBgkGBQYJCwgGBggLDAoKCwoK&#xA;DBAMDAwMDAwQDA4PEA8ODBMTFBQTExwbGxscHx8fHx8fHx8fHwEHBwcNDA0YEBAYGhURFRofHx8f&#xA;Hx8fHx8fHx8fHx8fHx8fHx8fHx8fHx8fHx8fHx8fHx8fHx8fHx8fHx8fHx8f/8AAEQgAVAEAAwER&#xA;AAIRAQMRAf/EAaIAAAAHAQEBAQEAAAAAAAAAAAQFAwIGAQAHCAkKCwEAAgIDAQEBAQEAAAAAAAAA&#xA;AQACAwQFBgcICQoLEAACAQMDAgQCBgcDBAIGAnMBAgMRBAAFIRIxQVEGE2EicYEUMpGhBxWxQiPB&#xA;UtHhMxZi8CRygvElQzRTkqKyY3PCNUQnk6OzNhdUZHTD0uIIJoMJChgZhJRFRqS0VtNVKBry4/PE&#xA;1OT0ZXWFlaW1xdXl9WZ2hpamtsbW5vY3R1dnd4eXp7fH1+f3OEhYaHiImKi4yNjo+Ck5SVlpeYmZ&#xA;qbnJ2en5KjpKWmp6ipqqusra6voRAAICAQIDBQUEBQYECAMDbQEAAhEDBCESMUEFURNhIgZxgZEy&#xA;obHwFMHR4SNCFVJicvEzJDRDghaSUyWiY7LCB3PSNeJEgxdUkwgJChgZJjZFGidkdFU38qOzwygp&#xA;0+PzhJSktMTU5PRldYWVpbXF1eX1RlZmdoaWprbG1ub2R1dnd4eXp7fH1+f3OEhYaHiImKi4yNjo&#xA;+DlJWWl5iZmpucnZ6fkqOkpaanqKmqq6ytrq+v/aAAwDAQACEQMRAD8A6g3mPyRYW8EB1TzDZwQr&#xA;sSZ41biC5LMy0qd2O++Kpr+nvL13pKvaXut38Ud60cht7j05kkjiSRkd+cNYwsq1AY7n2NCFRulx&#xA;2GvXs9uk2u6eyRl19S8KKyO7fY9OWVqqX/aoaUHbFCI1u28uG6uhd6tPbyyn94iRwsV2P2GaCR+/&#xA;Xl+rAAzhAyNDmpo/lXTrW+1WTVrmS0s7dvraoFiKJIyNX/RooZeVY/h+Lap7HFio6J5p8j+YNU/R&#xA;+nXeoyXUqsxBn1CJBwVQwDGRVBAQdO9fE1VSb80Pyl8j+Y3s7vXda1jTY9Mt5BytLtmUxFzIzTNP&#xA;HcsSCSAa9NvDImQBpmMZIJ6BKfyq/L78q/L3mxb7y35q1PVNTeKSIWt3co8LiRQ7EqkEPJgq8vtb&#xA;daZJgmvlvyn5PN3e2Om+ada+s6hcy35jW7liPKUgtQlfjK+masanx7UycmkyQjxEbOFg7Rw5ZcEZ&#xA;epnWo6Nbtoltp0+pXsMduYwL1JytzIYxt6koBLV6tmDmnGIuRoOxxZvDN0D790nuNM0S3t3kk8xa&#xA;rFFEpMsn1uVqAMX5Gqt/NT5U8BlcNZinLhibLUJBhHnS8/J+884vpuueYNUsNT9GzeSO2uLmGG45&#xA;L/o5b0ASz8SDQ0HfxzJSyuy/LTy95ZF/rU2ua7PHHbXDTyXepXVwsSNGfVmjjB2kVK8WALDtirF1&#xA;0z8uONP+Vk+YZAnMPMNZuOKk0ILsihFp+zXr74SUAUt/NnR/IHmvyz5Zh1HzVe2+l2ryS21zbpcX&#xA;n1v6oEjlaUxKymdKfC7gmpagPxYEvTfJ+reXtR0K3/QE0k+m2SpaRPKs6uBFGtATcKsjEKRVjXfq&#xA;a1xVBXPl3Rp7mravqcbyvVUj1C6ROT7cV4vT9rZe30Yqh55/Kmh6VqGo3OtXy2FsI3vbmS6u7j0V&#xA;DErSpkK8uhpue/bIZIcQqyPdszxz4TdA+9LbjzV+XU4Mx8z3aKgRyIrm6TYvQDio3JIoRStMEMfD&#xA;1J95cmGtMR9MPjEKHnPSvI8N3JPqvmy+sbuGJI2sINRVJmCxBRSFuUjOyjlUbnrljizlxEnvTTyZ&#xA;YeVtItb19N8xXWom7to7qQXl4t3LDCiswkSMglNpN6rvtixYy0X5ZSqLcedNVMs7SFaX85kKygjj&#xA;Th05OWBIrU9SAADS2yrX7bSNc0jSLu31+9063UeraXVtJLEJoyoU+sAFbp0NVIPtUFyRMDUtiGOO&#xA;QnESjuC7yxaeXPLUklovmC/1KadY1/3KXcl2yhOnEsKAnmORO528Mhxhs4Sh3vvKKajfRHzFffWD&#xA;PMLiBJpeMUhajRrwT4eJQhRX5ZKmFKy615P826JqWm6brlw0IKC7u7UuJofjXZXljZVrShFOlcqn&#xA;OOOPFI7MseMk0Nyl/lzyB5V03XbbUbfXtSvbmFmaO2ubhGiZnThVlWKMmg6b5VDW4ZHhEhbdLTZI&#xA;iyNkj/N+18j6l5nsrDXvM93oN3FaC4CWxEaGEtMA8khHI1KOAB4Zk21iNgm+TJfysu/KsVnf6Foe&#xA;uPrsmmzJ9auX4sRWJI0AdAFcARceW9WDVNa4WCWaJ5q8l6ndxaVp2qawt1PIVjCmX4mYkM1VVlot&#xA;Kk9AMyjqiTZjH5OMNMAKEpfNk3mDStJXSLax1LVb6CIT80uVmcTOwYuEZ1U7Dtt+ODHqjGZkIx+W&#xA;yz0wlHhMpfPdLV1Tyh9YZ18w6gnFy7xGW44VZy9KOnTtQdtsfzO1cMfkn8vvfFL5ohPLd5RC/lXy&#xA;/XnSRBI1AlaclY2W5pvx4+1e+YzkKw0jWhprwLoGhoy3LmG09WQweiRQSE/VBSVqDkAlP8o4q7Tb&#xA;XzhbXkTLouh2kEjRLeS21zP6vp8QZeC/VIwxVyQgZgCNzx6Yqi9RvvOkV7cpZabaT2Y4izlacoxJ&#xA;C8jKCPhAJanGuDdyYRxECyQeuzopvN9zpN7Fd6ZYrfqAltHJcO1rOG+1zpG7ovHb7LVPamItryxg&#xA;PoJKUaFded11K8t38n6Zpwtyqi/S+KxTxutVEHC0aR+HHi/qLH2IHYFqTqS583mO2f8ARliLk8vr&#xA;AW6eVIx6lB6btDAz8o6MaqtG+HcfFgLGUpDYKmkXHmmS6cataW0Ftx/dtBIzsX9+VNvo+7piLYxM&#xA;r3SpD52VvWt9B0q1l5OBW4Zm4/snkkS7nvmQZA7GRLXHHRsRiCjHufPbWTGOy0+K9DpxV55XjMZV&#xA;i+6orBg3ED6cqkB0bok9UP6/5m1H+i6QRXcercbD/gciySHzTcfmn/id5NJ8uafeWdmU/RepzxQS&#xA;yqJIU9fiz31tInxl12QVA75i5Z5gfRGJHvr9DOIj1LLPLd35rn8rx3GuWcNt5hKzl7NCFiDLI4gB&#xA;KSXQHKMIWo7dfoy+Jlw7/UgVe/JExza/RPVtoORX94EckBvYsFqPoyriy9wbjHF3lLPOUvnCNrF/&#xA;LemWWoyRmZ3a9biYZeAjieP4k6rJIGpvx275kOOidEvvN08qLqul29pEE/fTJc8m57/3cao4Zdh9&#xA;p1pXvkI8Vm6ZSramNXWrfnVHfTrb6Lpk9kJX+rsXKOYgWCcibg/EQFP2foHabFlmlt5qFjIdUjsX&#xA;vvU/dJbPKkXpcV+0zrI3Pny6ClKYqiTLrO1LW37cv9Ifbxp+43xVLNRtNVmu4pV0bTLsKqtI9xMw&#xA;lDsAHEZ+rSbDiKE05eApiqGjtvNNpFfPb6Vpdqwt5DatZyO0rzBGMalWhhX7YXq2KsYg1D80o30o&#xA;ySXUzy3Vil/E1nAqei80QuyxUD0wkRkP941O3Knxa3Dl1JyVOIEN99vOv4z5dPk2yEK2O/48maeZ&#xA;bjzbbpa/4cs7W6qzC6S5do+K0HHgQR71zOyGX8Lk6GGmlfjylHu4RfzX+V7nzVPZyt5jtLazuxLS&#xA;GO1cyKY+I+Ikk78q44zIj1I10NPGQ8CUpRrfiFbrru481pLKLOwsbiIf3LTXktux+KlGVba4/Z3r&#xA;XrtTucgCHUn5ftDriZ9APn+xDW1/50e5v4rnSbWGKKNTp88d2ZVlc/aVgY4mFP8AVHh75DUCoXj9&#xA;U+47M8BudZNod43RNhc+ZGuAt3Y28FserJMWYfRxod/lmDhnnMqlCIj7/wBjm5oYBH0ykZe79qhr&#xA;Q8xjUFfTtNsbuBYPguLmVkmWYsfhAEbfBxoftdc2MRCtybdfMzvYCl+inzL9dl/SdlZW9sY6pNbO&#xA;xkaTmfhZStOPHevLrjMQra1gZ3uBTD9L078wob6J08reXrENJWS6jXi60L0b92WJIFPv7b0OYQEv&#xA;QSQjCZmPrFFmWnt5vW0rqEeny3Zk6W8k8UYioN6ukrFq17AZWK6tqvPL5iA/cW1o59Nz8dxKn7wB&#xA;fTXaF/hJ5cm6ig+E12kBHzRuwpU8nOI4D5k1xGCkKfXvYK14sG2jjX4aj261rvmRLDPITICPwI/W&#xA;4cdVjgACT8RL9SV/mN5S8nXXlbSbXWvMupWlpJf+tZ3lz611O8pgMfpjkhZBxUuKjrXxzGlExNFy&#xA;oTExY5H4If8ALt/y08k3Oo3dt5nudQOox20Li5glKoLcyBOHGKtW9U8vkMizRnnfVPLlp5oM9/54&#xA;ntClxbL+hFMZSGSoAdQxRR/MWYGnXLY5xGjXK/jff7nHz/RKJ/iMd63jR/h6C+ux2Zncal5S83eV&#xA;tQjh1FLnR5g1nd3Vu4+EkLyUNQgGjjenfKSQNy3GQAspX5W0by75evp7uDzDeXi3IYNBeXTSx85X&#xA;5+rwNF9Q8ac6VO9cj4ke9gM0O9E+a38syXNvdahrM9ipi5BIOJjkjV+NXJilOzuOhH3Vybao+X/M&#xA;vll7m0s7PzNc3nE8IbWSKJVcMXWNCy20bUXkAtGB+Bak/FyVYALT8p5hcU8/68xlkCuPrc3JTyYB&#xA;EBt6gEgj6MVZjc+evIg8mtcW2p397pmhx2qXVzayTRXQSWMxxNI7mBpWbqwWrcv2a4q15e1fyDrk&#xA;8NnpvmDUnvZy5jtpL69WUiMEn4Xbb4V5U606+GKpR5ytvy6i13UINV8z3Nlf8Ve7tAC59MWsSheX&#xA;psz1WFZPtFq4qyLRvNnke/0T/DOla+7zLpzxx3EXqpcLFHFxMqPxFJEHxADcU2GKpN5E8o6D5U1B&#xA;LhPOms6vBFG0EGm3dy8lmhKhj+6RKc+JqoJ8dvASkALLKMTI0Ed+ZP5ieTfLw0ibVr/UoEvhdC1k&#xA;0sSMrCARmX1QtRtyXiaV602rksOYVYogsc2Eg0bBVfy81Pyv5zsbPzJoeqarcW+m3E1v6d3NInKT&#xA;01DLNG32wFdWXJnJZOw3CAKiI+d+fKufd5d7CdV8u/lpe6lqN7c+a7lnF/NJcq1mh9GZpmPpcxbh&#xA;uKNsCxPStcrS9A1zz75Efy7qV7d67LZ6fpDQnUry3FxFLGZH4IvwoZG9RlI+AE/rxVjh1v8ALeZT&#xA;MnnbWQvoxzl0u7ziyOKKw/dlSTz6L922KpD55h/LnWvM9qlx5m1a0u4tNtbplt4551ubSqtGzJGj&#xA;SEvzUt8HXwOYWo0UckuI8/dfyZxnT1LTfPflXW52sLC6neZ4pWP+jXcNFjVC5EkkSKrATLTeta03&#xA;VqZwLWQlaWvlWX04l17VWZFVai9vQST05mo+Jq998Zy5kphDkAnunaXYy2SraajeywrM8hle4ldy&#xA;x6qWkq3Edl6Y4c4okUfew1OlNgSMo13FF2Gk/VJTJ9cubioKhJ5S6gHj28fh6+5y3Jm4hVRHuDTh&#xA;03Ab4pS95tjWuflVo+r3N/cy6xrdrLqE8dy/1TU7mFIpIhGEMMat6aU9Ib8a/hSlyUXoP5fWmjrd&#xA;Kmt65fC79Gv1/U7m5MfoPz/dF2qnqdHp9obYqiYvJttHIkg1XVWdBHu9/OwLRc/iKFuHx+qeQpQ0&#xA;Xb4RirtR8nQ3pgrq2q24ggjtgLe9li5iMkiSSh+KRq/E/U98VXWPlCK0v47watqk5jcv6E95JJCa&#xA;qRxaM7Eb1+eKscsfyX0a0uWn/wAQeYJ6oyJFNqcrIjNGE9RQAvx/CrVr1HgSCpBpPtX8mpf2uhwi&#xA;+l5aHIskclyq3Rn4wNB/pAenNjz58v5t8nCfDbGYsonyr5Zj0C2vYUn9b67eS3pAQRJGZQo9KNFJ&#xA;4ooTbGc+JEY0m7wQyMGeNXYdCwBI+/IgkJMQW3jjfiXUMUPJKgGjdKj33wJXYqp3FrbXKcLiFJkF&#xA;aLIoYfEpU7GvVWI+WAi2Mog8wqYWTsVdirsVdirTKrKVYBlPUHcYq0YojKspRTKgZUkIHIK1CwB6&#xA;gHiK/LFVOSxspXLy28cjsKMzIpJHShJGKro7a3jNY4kQ+KqAd/liqpiq2SOOWNo5FDxuCrowBVlI&#xA;oQQeoOKofTtK0zTIDb6bZwWVuW5mG3jSJORAFeKBRWgAxVFYqtliimieGZFkikUpJG4DKysKEEHY&#xA;gjFV2KoU6VpZvXvzZwG+lQRSXXpp6rRg1CM9ORUHtXFVdIYUNURVJ2JUAfqxVfirsVdirsVdirsV&#xA;dirsVdirsVdirsVdirsVdirsVdirsVdirsVdirsVdirsVdirsVdirsVdirsVdirsVdirsVdirsVd&#xA;irsVdirsVdirsVdirsVdirsVdirsVdirsVdirsVdirsVdirsVdirsVdirsVdirsVdirsVdirsVdi&#xA;rsVdirsVdirsVdirsVdirsVdirsVdirsVdirsVdirsVdirsVdirsVdirsVdirsVdirsVdirsVdir&#xA;sVdirsVdirsVdirsVdirsVdirsVdirsVdirsVdirsVdirsVdirsVdirsVdirsVdirsVdirsVdirs&#xA;VdirsVdirsVdirsVdirsVdirsVdirsVdirsVdirsVdirsVdirsVdirsVdirsVdirsVdirsVdirsV&#xA;Y7fee9DttRk0+Njd3UQLSpDJACvGvLaWWMnjxNSoIBqK1BA1mq7XwYJcMifgLr3+fk2RxSkiIvNe&#xA;nNEJZoriBSKrWP1ifl9XM2Uw7f0Z/jr3g/qZHBPuTDT9Ts9Qhaa0dmRGKOHR42VgAaFZArDZgemb&#xA;TBnhljxQPFFqMSDRRWWodirsVdirsVdirsVdirsVdirsVdirsVdirsVdirsVdirsVdirsVdirsVd&#xA;irsVdirsVdirsVfGX5x+R9euPPttNZaBquqRppBs7t4EPCGdIpojEpWGRfhUqV3+OtQdwc5bQ5vA&#xA;xyx5ZQxzGS6PUWDfPq5MxxEEC9mG6X5W8xldOey03UYrW6VtEsY5GktnS+ni9b1TyEfwRTyyVYUH&#xA;wb0rTMrLqsfq4pQses9fSDVdeYA+bERP6H2n+Vuj/onyXY2bO0k6Apcu8jzM00X7mRjJIS7cmiJF&#xA;eg2GwzO7KlxaeMv5xkeVc5GuXkwy/UyzNi1uxV2KuxV2KuxV2KuxV2KuxV2KuxV2KuxV2KuxV2Ku&#xA;xV2KuxV2KuxV2KuxV2KuxV2KuxV2KpPqP+Evrp/SH1L9IcB/e+l9Y4fs8a/vOvSn0Zian8v/AJXg&#xA;/wA6v0s48XS0qn/wX63x/Xee393+kuP/AAnw5qM38ldfC+H/AB1tHi+af6J+jP0bH+jK/U+UvDl6&#xA;nLn6repX1fjr6nKtc3Wk8Pwo+F/d1s0yu9+aOzIYuxV2KuxV2KuxV2KuxV2KuxV//9k=</xmpGImg:image>
               </rdf:li>
            </rdf:Alt>
         </xmp:Thumbnails>
         <xmpMM:RenditionClass>proof:pdf</xmpMM:RenditionClass>
         <xmpMM:OriginalDocumentID>uuid:65E6390686CF11DBA6E2D887CEACB407</xmpMM:OriginalDocumentID>
         <xmpMM:DocumentID>xmp.did:1dc1ca2b-71ae-4da5-ae15-842c72f41d0e</xmpMM:DocumentID>
         <xmpMM:InstanceID>xmp.iid:1dc1ca2b-71ae-4da5-ae15-842c72f41d0e</xmpMM:InstanceID>
         <xmpMM:DerivedFrom rdf:parseType="Resource">
            <stRef:instanceID>uuid:446ebb43-a902-3a4d-aa62-593663b8916d</stRef:instanceID>
            <stRef:documentID>xmp.did:85D903DFCB1FE511916EB93C57174A80</stRef:documentID>
            <stRef:originalDocumentID>uuid:65E6390686CF11DBA6E2D887CEACB407</stRef:originalDocumentID>
            <stRef:renditionClass>proof:pdf</stRef:renditionClass>
         </xmpMM:DerivedFrom>
         <xmpMM:History>
            <rdf:Seq>
               <rdf:li rdf:parseType="Resource">
                  <stEvt:action>saved</stEvt:action>
                  <stEvt:instanceID>xmp.iid:85D903DFCB1FE511916EB93C57174A80</stEvt:instanceID>
                  <stEvt:when>2015-07-01T10:33:38+02:00</stEvt:when>
                  <stEvt:softwareAgent>Adobe Illustrator CS6 (Windows)</stEvt:softwareAgent>
                  <stEvt:changed>/</stEvt:changed>
               </rdf:li>
               <rdf:li rdf:parseType="Resource">
                  <stEvt:action>saved</stEvt:action>
                  <stEvt:instanceID>xmp.iid:1dc1ca2b-71ae-4da5-ae15-842c72f41d0e</stEvt:instanceID>
                  <stEvt:when>2015-11-02T15:23:06+01:00</stEvt:when>
                  <stEvt:softwareAgent>Adobe Illustrator CC 2015 (Macintosh)</stEvt:softwareAgent>
                  <stEvt:changed>/</stEvt:changed>
               </rdf:li>
            </rdf:Seq>
         </xmpMM:History>
         <illustrator:StartupProfile>Web</illustrator:StartupProfile>
         <xmpTPg:NPages>1</xmpTPg:NPages>
         <xmpTPg:HasVisibleTransparency>True</xmpTPg:HasVisibleTransparency>
         <xmpTPg:HasVisibleOverprint>False</xmpTPg:HasVisibleOverprint>
         <xmpTPg:MaxPageSize rdf:parseType="Resource">
            <stDim:w>125.000000</stDim:w>
            <stDim:h>40.000000</stDim:h>
            <stDim:unit>Pixels</stDim:unit>
         </xmpTPg:MaxPageSize>
         <xmpTPg:PlateNames>
            <rdf:Seq>
               <rdf:li>Cyan</rdf:li>
               <rdf:li>Magenta</rdf:li>
               <rdf:li>Yellow</rdf:li>
               <rdf:li>Black</rdf:li>
               <rdf:li>PANTONE 300 C</rdf:li>
               <rdf:li>PANTONE 8006 C</rdf:li>
               <rdf:li>PANTONE Process Black C</rdf:li>
            </rdf:Seq>
         </xmpTPg:PlateNames>
         <xmpTPg:SwatchGroups>
            <rdf:Seq>
               <rdf:li rdf:parseType="Resource">
                  <xmpG:groupName>Default Swatch Group</xmpG:groupName>
                  <xmpG:groupType>0</xmpG:groupType>
                  <xmpG:Colorants>
                     <rdf:Seq>
                        <rdf:li rdf:parseType="Resource">
                           <xmpG:swatchName>White</xmpG:swatchName>
                           <xmpG:mode>RGB</xmpG:mode>
                           <xmpG:type>PROCESS</xmpG:type>
                           <xmpG:red>255</xmpG:red>
                           <xmpG:green>255</xmpG:green>
                           <xmpG:blue>255</xmpG:blue>
                        </rdf:li>
                        <rdf:li rdf:parseType="Resource">
                           <xmpG:swatchName>Black</xmpG:swatchName>
                           <xmpG:mode>RGB</xmpG:mode>
                           <xmpG:type>PROCESS</xmpG:type>
                           <xmpG:red>0</xmpG:red>
                           <xmpG:green>0</xmpG:green>
                           <xmpG:blue>0</xmpG:blue>
                        </rdf:li>
                        <rdf:li rdf:parseType="Resource">
                           <xmpG:swatchName>RGB Red</xmpG:swatchName>
                           <xmpG:mode>RGB</xmpG:mode>
                           <xmpG:type>PROCESS</xmpG:type>
                           <xmpG:red>255</xmpG:red>
                           <xmpG:green>0</xmpG:green>
                           <xmpG:blue>0</xmpG:blue>
                        </rdf:li>
                        <rdf:li rdf:parseType="Resource">
                           <xmpG:swatchName>RGB Yellow</xmpG:swatchName>
                           <xmpG:mode>RGB</xmpG:mode>
                           <xmpG:type>PROCESS</xmpG:type>
                           <xmpG:red>255</xmpG:red>
                           <xmpG:green>255</xmpG:green>
                           <xmpG:blue>0</xmpG:blue>
                        </rdf:li>
                        <rdf:li rdf:parseType="Resource">
                           <xmpG:swatchName>RGB Green</xmpG:swatchName>
                           <xmpG:mode>RGB</xmpG:mode>
                           <xmpG:type>PROCESS</xmpG:type>
                           <xmpG:red>0</xmpG:red>
                           <xmpG:green>255</xmpG:green>
                           <xmpG:blue>0</xmpG:blue>
                        </rdf:li>
                        <rdf:li rdf:parseType="Resource">
                           <xmpG:swatchName>RGB Cyan</xmpG:swatchName>
                           <xmpG:mode>RGB</xmpG:mode>
                           <xmpG:type>PROCESS</xmpG:type>
                           <xmpG:red>0</xmpG:red>
                           <xmpG:green>255</xmpG:green>
                           <xmpG:blue>255</xmpG:blue>
                        </rdf:li>
                        <rdf:li rdf:parseType="Resource">
                           <xmpG:swatchName>RGB Blue</xmpG:swatchName>
                           <xmpG:mode>RGB</xmpG:mode>
                           <xmpG:type>PROCESS</xmpG:type>
                           <xmpG:red>0</xmpG:red>
                           <xmpG:green>0</xmpG:green>
                           <xmpG:blue>255</xmpG:blue>
                        </rdf:li>
                        <rdf:li rdf:parseType="Resource">
                           <xmpG:swatchName>RGB Magenta</xmpG:swatchName>
                           <xmpG:mode>RGB</xmpG:mode>
                           <xmpG:type>PROCESS</xmpG:type>
                           <xmpG:red>255</xmpG:red>
                           <xmpG:green>0</xmpG:green>
                           <xmpG:blue>255</xmpG:blue>
                        </rdf:li>
                        <rdf:li rdf:parseType="Resource">
                           <xmpG:swatchName>R=193 G=39 B=45</xmpG:swatchName>
                           <xmpG:mode>RGB</xmpG:mode>
                           <xmpG:type>PROCESS</xmpG:type>
                           <xmpG:red>193</xmpG:red>
                           <xmpG:green>39</xmpG:green>
                           <xmpG:blue>45</xmpG:blue>
                        </rdf:li>
                        <rdf:li rdf:parseType="Resource">
                           <xmpG:swatchName>R=237 G=28 B=36</xmpG:swatchName>
                           <xmpG:mode>RGB</xmpG:mode>
                           <xmpG:type>PROCESS</xmpG:type>
                           <xmpG:red>237</xmpG:red>
                           <xmpG:green>28</xmpG:green>
                           <xmpG:blue>36</xmpG:blue>
                        </rdf:li>
                        <rdf:li rdf:parseType="Resource">
                           <xmpG:swatchName>R=241 G=90 B=36</xmpG:swatchName>
                           <xmpG:mode>RGB</xmpG:mode>
                           <xmpG:type>PROCESS</xmpG:type>
                           <xmpG:red>241</xmpG:red>
                           <xmpG:green>90</xmpG:green>
                           <xmpG:blue>36</xmpG:blue>
                        </rdf:li>
                        <rdf:li rdf:parseType="Resource">
                           <xmpG:swatchName>R=247 G=147 B=30</xmpG:swatchName>
                           <xmpG:mode>RGB</xmpG:mode>
                           <xmpG:type>PROCESS</xmpG:type>
                           <xmpG:red>247</xmpG:red>
                           <xmpG:green>147</xmpG:green>
                           <xmpG:blue>30</xmpG:blue>
                        </rdf:li>
                        <rdf:li rdf:parseType="Resource">
                           <xmpG:swatchName>R=251 G=176 B=59</xmpG:swatchName>
                           <xmpG:mode>RGB</xmpG:mode>
                           <xmpG:type>PROCESS</xmpG:type>
                           <xmpG:red>251</xmpG:red>
                           <xmpG:green>176</xmpG:green>
                           <xmpG:blue>59</xmpG:blue>
                        </rdf:li>
                        <rdf:li rdf:parseType="Resource">
                           <xmpG:swatchName>R=252 G=238 B=33</xmpG:swatchName>
                           <xmpG:mode>RGB</xmpG:mode>
                           <xmpG:type>PROCESS</xmpG:type>
                           <xmpG:red>252</xmpG:red>
                           <xmpG:green>238</xmpG:green>
                           <xmpG:blue>33</xmpG:blue>
                        </rdf:li>
                        <rdf:li rdf:parseType="Resource">
                           <xmpG:swatchName>R=217 G=224 B=33</xmpG:swatchName>
                           <xmpG:mode>RGB</xmpG:mode>
                           <xmpG:type>PROCESS</xmpG:type>
                           <xmpG:red>217</xmpG:red>
                           <xmpG:green>224</xmpG:green>
                           <xmpG:blue>33</xmpG:blue>
                        </rdf:li>
                        <rdf:li rdf:parseType="Resource">
                           <xmpG:swatchName>R=140 G=198 B=63</xmpG:swatchName>
                           <xmpG:mode>RGB</xmpG:mode>
                           <xmpG:type>PROCESS</xmpG:type>
                           <xmpG:red>140</xmpG:red>
                           <xmpG:green>198</xmpG:green>
                           <xmpG:blue>63</xmpG:blue>
                        </rdf:li>
                        <rdf:li rdf:parseType="Resource">
                           <xmpG:swatchName>R=57 G=181 B=74</xmpG:swatchName>
                           <xmpG:mode>RGB</xmpG:mode>
                           <xmpG:type>PROCESS</xmpG:type>
                           <xmpG:red>57</xmpG:red>
                           <xmpG:green>181</xmpG:green>
                           <xmpG:blue>74</xmpG:blue>
                        </rdf:li>
                        <rdf:li rdf:parseType="Resource">
                           <xmpG:swatchName>R=0 G=146 B=69</xmpG:swatchName>
                           <xmpG:mode>RGB</xmpG:mode>
                           <xmpG:type>PROCESS</xmpG:type>
                           <xmpG:red>0</xmpG:red>
                           <xmpG:green>146</xmpG:green>
                           <xmpG:blue>69</xmpG:blue>
                        </rdf:li>
                        <rdf:li rdf:parseType="Resource">
                           <xmpG:swatchName>R=0 G=104 B=55</xmpG:swatchName>
                           <xmpG:mode>RGB</xmpG:mode>
                           <xmpG:type>PROCESS</xmpG:type>
                           <xmpG:red>0</xmpG:red>
                           <xmpG:green>104</xmpG:green>
                           <xmpG:blue>55</xmpG:blue>
                        </rdf:li>
                        <rdf:li rdf:parseType="Resource">
                           <xmpG:swatchName>R=34 G=181 B=115</xmpG:swatchName>
                           <xmpG:mode>RGB</xmpG:mode>
                           <xmpG:type>PROCESS</xmpG:type>
                           <xmpG:red>34</xmpG:red>
                           <xmpG:green>181</xmpG:green>
                           <xmpG:blue>115</xmpG:blue>
                        </rdf:li>
                        <rdf:li rdf:parseType="Resource">
                           <xmpG:swatchName>R=0 G=169 B=157</xmpG:swatchName>
                           <xmpG:mode>RGB</xmpG:mode>
                           <xmpG:type>PROCESS</xmpG:type>
                           <xmpG:red>0</xmpG:red>
                           <xmpG:green>169</xmpG:green>
                           <xmpG:blue>157</xmpG:blue>
                        </rdf:li>
                        <rdf:li rdf:parseType="Resource">
                           <xmpG:swatchName>R=41 G=171 B=226</xmpG:swatchName>
                           <xmpG:mode>RGB</xmpG:mode>
                           <xmpG:type>PROCESS</xmpG:type>
                           <xmpG:red>41</xmpG:red>
                           <xmpG:green>171</xmpG:green>
                           <xmpG:blue>226</xmpG:blue>
                        </rdf:li>
                        <rdf:li rdf:parseType="Resource">
                           <xmpG:swatchName>R=0 G=113 B=188</xmpG:swatchName>
                           <xmpG:mode>RGB</xmpG:mode>
                           <xmpG:type>PROCESS</xmpG:type>
                           <xmpG:red>0</xmpG:red>
                           <xmpG:green>113</xmpG:green>
                           <xmpG:blue>188</xmpG:blue>
                        </rdf:li>
                        <rdf:li rdf:parseType="Resource">
                           <xmpG:swatchName>R=46 G=49 B=146</xmpG:swatchName>
                           <xmpG:mode>RGB</xmpG:mode>
                           <xmpG:type>PROCESS</xmpG:type>
                           <xmpG:red>46</xmpG:red>
                           <xmpG:green>49</xmpG:green>
                           <xmpG:blue>146</xmpG:blue>
                        </rdf:li>
                        <rdf:li rdf:parseType="Resource">
                           <xmpG:swatchName>R=27 G=20 B=100</xmpG:swatchName>
                           <xmpG:mode>RGB</xmpG:mode>
                           <xmpG:type>PROCESS</xmpG:type>
                           <xmpG:red>27</xmpG:red>
                           <xmpG:green>20</xmpG:green>
                           <xmpG:blue>100</xmpG:blue>
                        </rdf:li>
                        <rdf:li rdf:parseType="Resource">
                           <xmpG:swatchName>R=102 G=45 B=145</xmpG:swatchName>
                           <xmpG:mode>RGB</xmpG:mode>
                           <xmpG:type>PROCESS</xmpG:type>
                           <xmpG:red>102</xmpG:red>
                           <xmpG:green>45</xmpG:green>
                           <xmpG:blue>145</xmpG:blue>
                        </rdf:li>
                        <rdf:li rdf:parseType="Resource">
                           <xmpG:swatchName>R=147 G=39 B=143</xmpG:swatchName>
                           <xmpG:mode>RGB</xmpG:mode>
                           <xmpG:type>PROCESS</xmpG:type>
                           <xmpG:red>147</xmpG:red>
                           <xmpG:green>39</xmpG:green>
                           <xmpG:blue>143</xmpG:blue>
                        </rdf:li>
                        <rdf:li rdf:parseType="Resource">
                           <xmpG:swatchName>R=158 G=0 B=93</xmpG:swatchName>
                           <xmpG:mode>RGB</xmpG:mode>
                           <xmpG:type>PROCESS</xmpG:type>
                           <xmpG:red>158</xmpG:red>
                           <xmpG:green>0</xmpG:green>
                           <xmpG:blue>93</xmpG:blue>
                        </rdf:li>
                        <rdf:li rdf:parseType="Resource">
                           <xmpG:swatchName>R=212 G=20 B=90</xmpG:swatchName>
                           <xmpG:mode>RGB</xmpG:mode>
                           <xmpG:type>PROCESS</xmpG:type>
                           <xmpG:red>212</xmpG:red>
                           <xmpG:green>20</xmpG:green>
                           <xmpG:blue>90</xmpG:blue>
                        </rdf:li>
                        <rdf:li rdf:parseType="Resource">
                           <xmpG:swatchName>R=237 G=30 B=121</xmpG:swatchName>
                           <xmpG:mode>RGB</xmpG:mode>
                           <xmpG:type>PROCESS</xmpG:type>
                           <xmpG:red>237</xmpG:red>
                           <xmpG:green>30</xmpG:green>
                           <xmpG:blue>121</xmpG:blue>
                        </rdf:li>
                        <rdf:li rdf:parseType="Resource">
                           <xmpG:swatchName>R=199 G=178 B=153</xmpG:swatchName>
                           <xmpG:mode>RGB</xmpG:mode>
                           <xmpG:type>PROCESS</xmpG:type>
                           <xmpG:red>199</xmpG:red>
                           <xmpG:green>178</xmpG:green>
                           <xmpG:blue>153</xmpG:blue>
                        </rdf:li>
                        <rdf:li rdf:parseType="Resource">
                           <xmpG:swatchName>R=153 G=134 B=117</xmpG:swatchName>
                           <xmpG:mode>RGB</xmpG:mode>
                           <xmpG:type>PROCESS</xmpG:type>
                           <xmpG:red>153</xmpG:red>
                           <xmpG:green>134</xmpG:green>
                           <xmpG:blue>117</xmpG:blue>
                        </rdf:li>
                        <rdf:li rdf:parseType="Resource">
                           <xmpG:swatchName>R=115 G=99 B=87</xmpG:swatchName>
                           <xmpG:mode>RGB</xmpG:mode>
                           <xmpG:type>PROCESS</xmpG:type>
                           <xmpG:red>115</xmpG:red>
                           <xmpG:green>99</xmpG:green>
                           <xmpG:blue>87</xmpG:blue>
                        </rdf:li>
                        <rdf:li rdf:parseType="Resource">
                           <xmpG:swatchName>R=83 G=71 B=65</xmpG:swatchName>
                           <xmpG:mode>RGB</xmpG:mode>
                           <xmpG:type>PROCESS</xmpG:type>
                           <xmpG:red>83</xmpG:red>
                           <xmpG:green>71</xmpG:green>
                           <xmpG:blue>65</xmpG:blue>
                        </rdf:li>
                        <rdf:li rdf:parseType="Resource">
                           <xmpG:swatchName>R=198 G=156 B=109</xmpG:swatchName>
                           <xmpG:mode>RGB</xmpG:mode>
                           <xmpG:type>PROCESS</xmpG:type>
                           <xmpG:red>198</xmpG:red>
                           <xmpG:green>156</xmpG:green>
                           <xmpG:blue>109</xmpG:blue>
                        </rdf:li>
                        <rdf:li rdf:parseType="Resource">
                           <xmpG:swatchName>R=166 G=124 B=82</xmpG:swatchName>
                           <xmpG:mode>RGB</xmpG:mode>
                           <xmpG:type>PROCESS</xmpG:type>
                           <xmpG:red>166</xmpG:red>
                           <xmpG:green>124</xmpG:green>
                           <xmpG:blue>82</xmpG:blue>
                        </rdf:li>
                        <rdf:li rdf:parseType="Resource">
                           <xmpG:swatchName>R=140 G=98 B=57</xmpG:swatchName>
                           <xmpG:mode>RGB</xmpG:mode>
                           <xmpG:type>PROCESS</xmpG:type>
                           <xmpG:red>140</xmpG:red>
                           <xmpG:green>98</xmpG:green>
                           <xmpG:blue>57</xmpG:blue>
                        </rdf:li>
                        <rdf:li rdf:parseType="Resource">
                           <xmpG:swatchName>R=117 G=76 B=36</xmpG:swatchName>
                           <xmpG:mode>RGB</xmpG:mode>
                           <xmpG:type>PROCESS</xmpG:type>
                           <xmpG:red>117</xmpG:red>
                           <xmpG:green>76</xmpG:green>
                           <xmpG:blue>36</xmpG:blue>
                        </rdf:li>
                        <rdf:li rdf:parseType="Resource">
                           <xmpG:swatchName>R=96 G=56 B=19</xmpG:swatchName>
                           <xmpG:mode>RGB</xmpG:mode>
                           <xmpG:type>PROCESS</xmpG:type>
                           <xmpG:red>96</xmpG:red>
                           <xmpG:green>56</xmpG:green>
                           <xmpG:blue>19</xmpG:blue>
                        </rdf:li>
                        <rdf:li rdf:parseType="Resource">
                           <xmpG:swatchName>R=66 G=33 B=11</xmpG:swatchName>
                           <xmpG:mode>RGB</xmpG:mode>
                           <xmpG:type>PROCESS</xmpG:type>
                           <xmpG:red>66</xmpG:red>
                           <xmpG:green>33</xmpG:green>
                           <xmpG:blue>11</xmpG:blue>
                        </rdf:li>
                        <rdf:li rdf:parseType="Resource">
                           <xmpG:swatchName>PANTONE 8006 C</xmpG:swatchName>
                           <xmpG:type>SPOT</xmpG:type>
                           <xmpG:tint>100.000000</xmpG:tint>
                           <xmpG:mode>LAB</xmpG:mode>
                           <xmpG:L>49.411800</xmpG:L>
                           <xmpG:A>7</xmpG:A>
                           <xmpG:B>20</xmpG:B>
                        </rdf:li>
                        <rdf:li rdf:parseType="Resource">
                           <xmpG:swatchName>PANTONE Process Black C</xmpG:swatchName>
                           <xmpG:type>SPOT</xmpG:type>
                           <xmpG:tint>100.000000</xmpG:tint>
                           <xmpG:mode>CMYK</xmpG:mode>
                           <xmpG:cyan>0.000000</xmpG:cyan>
                           <xmpG:magenta>0.000000</xmpG:magenta>
                           <xmpG:yellow>0.000000</xmpG:yellow>
                           <xmpG:black>100.000000</xmpG:black>
                        </rdf:li>
                        <rdf:li rdf:parseType="Resource">
                           <xmpG:swatchName>PANTONE 300 C</xmpG:swatchName>
                           <xmpG:type>SPOT</xmpG:type>
                           <xmpG:tint>100.000000</xmpG:tint>
                           <xmpG:mode>LAB</xmpG:mode>
                           <xmpG:L>35.686298</xmpG:L>
                           <xmpG:A>-10</xmpG:A>
                           <xmpG:B>-62</xmpG:B>
                        </rdf:li>
                        <rdf:li rdf:parseType="Resource">
                           <xmpG:swatchName>Black</xmpG:swatchName>
                           <xmpG:type>PROCESS</xmpG:type>
                           <xmpG:tint>100.000000</xmpG:tint>
                           <xmpG:mode>RGB</xmpG:mode>
                           <xmpG:red>35</xmpG:red>
                           <xmpG:green>31</xmpG:green>
                           <xmpG:blue>32</xmpG:blue>
                        </rdf:li>
                     </rdf:Seq>
                  </xmpG:Colorants>
               </rdf:li>
               <rdf:li rdf:parseType="Resource">
                  <xmpG:groupName>Grays</xmpG:groupName>
                  <xmpG:groupType>1</xmpG:groupType>
                  <xmpG:Colorants>
                     <rdf:Seq>
                        <rdf:li rdf:parseType="Resource">
                           <xmpG:swatchName>R=0 G=0 B=0</xmpG:swatchName>
                           <xmpG:mode>RGB</xmpG:mode>
                           <xmpG:type>PROCESS</xmpG:type>
                           <xmpG:red>0</xmpG:red>
                           <xmpG:green>0</xmpG:green>
                           <xmpG:blue>0</xmpG:blue>
                        </rdf:li>
                        <rdf:li rdf:parseType="Resource">
                           <xmpG:swatchName>R=26 G=26 B=26</xmpG:swatchName>
                           <xmpG:mode>RGB</xmpG:mode>
                           <xmpG:type>PROCESS</xmpG:type>
                           <xmpG:red>26</xmpG:red>
                           <xmpG:green>26</xmpG:green>
                           <xmpG:blue>26</xmpG:blue>
                        </rdf:li>
                        <rdf:li rdf:parseType="Resource">
                           <xmpG:swatchName>R=51 G=51 B=51</xmpG:swatchName>
                           <xmpG:mode>RGB</xmpG:mode>
                           <xmpG:type>PROCESS</xmpG:type>
                           <xmpG:red>51</xmpG:red>
                           <xmpG:green>51</xmpG:green>
                           <xmpG:blue>51</xmpG:blue>
                        </rdf:li>
                        <rdf:li rdf:parseType="Resource">
                           <xmpG:swatchName>R=77 G=77 B=77</xmpG:swatchName>
                           <xmpG:mode>RGB</xmpG:mode>
                           <xmpG:type>PROCESS</xmpG:type>
                           <xmpG:red>77</xmpG:red>
                           <xmpG:green>77</xmpG:green>
                           <xmpG:blue>77</xmpG:blue>
                        </rdf:li>
                        <rdf:li rdf:parseType="Resource">
                           <xmpG:swatchName>R=102 G=102 B=102</xmpG:swatchName>
                           <xmpG:mode>RGB</xmpG:mode>
                           <xmpG:type>PROCESS</xmpG:type>
                           <xmpG:red>102</xmpG:red>
                           <xmpG:green>102</xmpG:green>
                           <xmpG:blue>102</xmpG:blue>
                        </rdf:li>
                        <rdf:li rdf:parseType="Resource">
                           <xmpG:swatchName>R=128 G=128 B=128</xmpG:swatchName>
                           <xmpG:mode>RGB</xmpG:mode>
                           <xmpG:type>PROCESS</xmpG:type>
                           <xmpG:red>128</xmpG:red>
                           <xmpG:green>128</xmpG:green>
                           <xmpG:blue>128</xmpG:blue>
                        </rdf:li>
                        <rdf:li rdf:parseType="Resource">
                           <xmpG:swatchName>R=153 G=153 B=153</xmpG:swatchName>
                           <xmpG:mode>RGB</xmpG:mode>
                           <xmpG:type>PROCESS</xmpG:type>
                           <xmpG:red>153</xmpG:red>
                           <xmpG:green>153</xmpG:green>
                           <xmpG:blue>153</xmpG:blue>
                        </rdf:li>
                        <rdf:li rdf:parseType="Resource">
                           <xmpG:swatchName>R=179 G=179 B=179</xmpG:swatchName>
                           <xmpG:mode>RGB</xmpG:mode>
                           <xmpG:type>PROCESS</xmpG:type>
                           <xmpG:red>179</xmpG:red>
                           <xmpG:green>179</xmpG:green>
                           <xmpG:blue>179</xmpG:blue>
                        </rdf:li>
                        <rdf:li rdf:parseType="Resource">
                           <xmpG:swatchName>R=204 G=204 B=204</xmpG:swatchName>
                           <xmpG:mode>RGB</xmpG:mode>
                           <xmpG:type>PROCESS</xmpG:type>
                           <xmpG:red>204</xmpG:red>
                           <xmpG:green>204</xmpG:green>
                           <xmpG:blue>204</xmpG:blue>
                        </rdf:li>
                        <rdf:li rdf:parseType="Resource">
                           <xmpG:swatchName>R=230 G=230 B=230</xmpG:swatchName>
                           <xmpG:mode>RGB</xmpG:mode>
                           <xmpG:type>PROCESS</xmpG:type>
                           <xmpG:red>230</xmpG:red>
                           <xmpG:green>230</xmpG:green>
                           <xmpG:blue>230</xmpG:blue>
                        </rdf:li>
                        <rdf:li rdf:parseType="Resource">
                           <xmpG:swatchName>R=242 G=242 B=242</xmpG:swatchName>
                           <xmpG:mode>RGB</xmpG:mode>
                           <xmpG:type>PROCESS</xmpG:type>
                           <xmpG:red>242</xmpG:red>
                           <xmpG:green>242</xmpG:green>
                           <xmpG:blue>242</xmpG:blue>
                        </rdf:li>
                     </rdf:Seq>
                  </xmpG:Colorants>
               </rdf:li>
               <rdf:li rdf:parseType="Resource">
                  <xmpG:groupName>Web Color Group</xmpG:groupName>
                  <xmpG:groupType>1</xmpG:groupType>
                  <xmpG:Colorants>
                     <rdf:Seq>
                        <rdf:li rdf:parseType="Resource">
                           <xmpG:swatchName>R=63 G=169 B=245</xmpG:swatchName>
                           <xmpG:mode>RGB</xmpG:mode>
                           <xmpG:type>PROCESS</xmpG:type>
                           <xmpG:red>63</xmpG:red>
                           <xmpG:green>169</xmpG:green>
                           <xmpG:blue>245</xmpG:blue>
                        </rdf:li>
                        <rdf:li rdf:parseType="Resource">
                           <xmpG:swatchName>R=122 G=201 B=67</xmpG:swatchName>
                           <xmpG:mode>RGB</xmpG:mode>
                           <xmpG:type>PROCESS</xmpG:type>
                           <xmpG:red>122</xmpG:red>
                           <xmpG:green>201</xmpG:green>
                           <xmpG:blue>67</xmpG:blue>
                        </rdf:li>
                        <rdf:li rdf:parseType="Resource">
                           <xmpG:swatchName>R=255 G=147 B=30</xmpG:swatchName>
                           <xmpG:mode>RGB</xmpG:mode>
                           <xmpG:type>PROCESS</xmpG:type>
                           <xmpG:red>255</xmpG:red>
                           <xmpG:green>147</xmpG:green>
                           <xmpG:blue>30</xmpG:blue>
                        </rdf:li>
                        <rdf:li rdf:parseType="Resource">
                           <xmpG:swatchName>R=255 G=29 B=37</xmpG:swatchName>
                           <xmpG:mode>RGB</xmpG:mode>
                           <xmpG:type>PROCESS</xmpG:type>
                           <xmpG:red>255</xmpG:red>
                           <xmpG:green>29</xmpG:green>
                           <xmpG:blue>37</xmpG:blue>
                        </rdf:li>
                        <rdf:li rdf:parseType="Resource">
                           <xmpG:swatchName>R=255 G=123 B=172</xmpG:swatchName>
                           <xmpG:mode>RGB</xmpG:mode>
                           <xmpG:type>PROCESS</xmpG:type>
                           <xmpG:red>255</xmpG:red>
                           <xmpG:green>123</xmpG:green>
                           <xmpG:blue>172</xmpG:blue>
                        </rdf:li>
                        <rdf:li rdf:parseType="Resource">
                           <xmpG:swatchName>R=189 G=204 B=212</xmpG:swatchName>
                           <xmpG:mode>RGB</xmpG:mode>
                           <xmpG:type>PROCESS</xmpG:type>
                           <xmpG:red>189</xmpG:red>
                           <xmpG:green>204</xmpG:green>
                           <xmpG:blue>212</xmpG:blue>
                        </rdf:li>
                     </rdf:Seq>
                  </xmpG:Colorants>
               </rdf:li>
            </rdf:Seq>
         </xmpTPg:SwatchGroups>
         <pdf:Producer>Adobe PDF library 10.01</pdf:Producer>
      </rdf:Description>
   </rdf:RDF>
</x:xmpmeta>
                                                                                                    
                                                                                                    
                                                                                                    
                                                                                                    
                                                                                                    
                                                                                                    
                                                                                                    
                                                                                                    
                                                                                                    
                                                                                                    
                                                                                                    
                                                                                                    
                                                                                                    
                                                                                                    
                                                                                                    
                                                                                                    
                                                                                                    
                                                                                                    
                                                                                                    
                                                                                                    
                           
<?xpacket end="w"?>
	</metadata>
<g id="Layer_1">
</g>
<g id="Layer_2">
</g>
<g id="Layer_3">
	<g>
		<g>
			<path fill="#757575" d="M0.1,17.7c0-3.6,3-6.5,6.6-6.5c2,0,3.4,0.8,4.4,1.8l-1.3,1.3c-0.8-0.7-1.8-1.3-3.2-1.3
				c-2.6,0-4.7,2.1-4.7,4.7s2,4.7,4.7,4.7c1.7,0,2.6-0.7,3.3-1.3c0.5-0.5,0.9-1.3,1-2.2H6.8v-1.8h5.9c0.1,0.3,0.1,0.7,0.1,1.1
				c0,1.3-0.4,3-1.5,4.1c-1.1,1.2-2.6,1.8-4.5,1.8C3.1,24.2,0.1,21.4,0.1,17.7z M17.6,15.9c-2.3,0-4.2,1.8-4.2,4.1
				c0,2.4,1.9,4.1,4.2,4.1c2.3,0,4.2-1.8,4.2-4.1C21.7,17.7,19.9,15.9,17.6,15.9z M17.6,22.6c-1.3,0-2.4-1.1-2.4-2.5
				c0-1.5,1.1-2.5,2.4-2.5c1.3,0,2.4,1.1,2.4,2.5C19.9,21.5,18.8,22.6,17.6,22.6z M26.7,15.9c-2.3,0-4.2,1.8-4.2,4.1
				c0,2.4,1.9,4.1,4.2,4.1s4.2-1.8,4.2-4.1S29,15.9,26.7,15.9z M26.7,22.6c-1.3,0-2.4-1.1-2.4-2.5c0-1.5,1.1-2.5,2.4-2.5
				s2.4,1.1,2.4,2.5C29,21.5,27.9,22.6,26.7,22.6z M37.9,16.1v0.7h-0.1c-0.4-0.5-1.2-0.9-2.2-0.9c-2.1,0-4,1.8-4,4.2s1.9,4.1,4,4.1
				c1,0,1.8-0.5,2.2-0.9h0.1v0.6c0,1.6-0.9,2.4-2.2,2.4c-1.1,0-1.8-0.8-2.1-1.5L32,25.5c0.5,1.1,1.6,2.4,3.7,2.4c2.2,0,4-1.3,4-4.3
				v-7.4H37.9z M35.8,22.6c-1.3,0-2.3-1.1-2.3-2.5c0-1.4,1.1-2.6,2.3-2.6c1.3,0,2.2,1.1,2.2,2.6C38,21.5,37.1,22.6,35.8,22.6z
				 M40.9,11.7h1.8V24h-1.8V11.7z M47.7,22.6c-0.9,0-1.6-0.4-2-1.3l5.6-2.3l-0.2-0.5c-0.3-0.9-1.4-2.6-3.6-2.6c-2.2,0-4,1.7-4,4.1
				c0,2.4,1.8,4.1,4.1,4.1c1.9,0,3-1.2,3.5-1.8l-1.4-0.9C49.3,22.1,48.7,22.6,47.7,22.6z M47.6,17.5c0.7,0,1.3,0.4,1.6,0.9L45.4,20
				C45.4,18.3,46.7,17.5,47.6,17.5z"/>
		</g>
		<path fill="none" d="M0,11.3h51.4v16.8H0L0,11.3z"/>
		<path fill="none" d="M0,11.3h125v16.8H0V11.3z"/>
		<g>
			<path fill="#EE6B00" d="M86.7,12.7h1.4l4,6.9h0.1l4-6.9h1.4V24h-1.4v-6.7l0.1-1.9h-0.1l-3.6,6.2h-0.9l-3.6-6.2h-0.1l0.1,1.9V24
				h-1.4L86.7,12.7L86.7,12.7z M104.8,24v-1.1h-0.1c-0.4,0.7-1.4,1.3-2.4,1.3c-2,0-3-1.3-3-3.2v-4.7h1.4v4.5c0,1.6,0.8,2.2,1.9,2.2
				c1.3,0,2-1.2,2-2.4v-4.3h1.4V24H104.8L104.8,24z M107.2,22l1.3-0.5c0.4,1,1.2,1.4,2.1,1.4s1.6-0.5,1.6-1.1c0-0.4-0.3-0.8-1.1-1.1
				l-1.6-0.4c-0.7-0.2-2-0.8-2-2.2s1.4-2.3,3.1-2.3c1.3,0,2.5,0.6,3,1.8l-1.3,0.5c-0.3-0.7-1-1.1-1.8-1.1c-0.8,0-1.5,0.4-1.5,1
				c0,0.5,0.4,0.8,1.1,0.9l1.5,0.4c1.5,0.4,2.1,1.3,2.1,2.2c0,1.4-1.3,2.4-3,2.4C108.7,24.2,107.7,23.1,107.2,22L107.2,22z
				 M114.5,13.6c0-0.6,0.5-1.1,1.1-1.1c0.6,0,1.1,0.5,1.1,1.1s-0.5,1.1-1.1,1.1C115,14.6,114.5,14.1,114.5,13.6z M114.8,24v-7.8h1.4
				V24H114.8z M117.5,20.1c0-2.4,1.6-4.1,4-4.1c1.8,0,2.9,1.1,3.4,2.2l-1.3,0.5c-0.4-0.9-1.1-1.4-2.2-1.4c-1.3,0-2.4,1.1-2.4,2.8
				s1.2,2.8,2.4,2.8c1.1,0,1.8-0.5,2.2-1.4l1.3,0.5c-0.5,1.1-1.6,2.2-3.4,2.2C119.1,24.2,117.5,22.5,117.5,20.1L117.5,20.1z"/>
		</g>
		<g>
			<path fill="#757575" d="M59.4,11.7H55V24h1.8v-4.7h2.6c2,0,4-1.4,4-3.8S61.4,11.7,59.4,11.7z M59.4,17.7h-2.6v-4.2h2.6
				c1.4,0,2.2,1.1,2.2,2.1C61.6,16.5,60.8,17.7,59.4,17.7z M66.3,24V11.7h-1.8V24H66.3z M74.5,24v-4.7c0-2.2-1.6-3.4-3.8-3.4
				c-1.3,0-2.7,0.6-3.3,1.9l1.6,0.7c0.3-0.7,1-0.9,1.6-0.9c0.9,0,1.9,0.6,1.9,1.6v0.1c-0.3-0.2-1.1-0.5-1.9-0.5
				c-1.8,0-3.6,1-3.6,2.8c0,1.6,1.4,2.7,3,2.7c1.3,0,1.9-0.5,2.3-1.2h0.1V24H74.5z M70.5,22.6c-0.6,0-1.4-0.3-1.4-1.1
				c0-0.9,1.1-1.3,1.9-1.3c0.8,0,1.2,0.2,1.6,0.4C72.6,21.8,71.6,22.6,70.5,22.6z M80.9,16.1l-2.1,5.3h-0.1l-2.2-5.3h-2l3.3,7.4
				L76,27.7h1.9l5-11.6H80.9L80.9,16.1z"/>
		</g>
	</g>
	<rect x="0" y="15.9" display="none" fill="#020202" width="64.7" height="8.3"/>
</g>
</svg>
